^D:\VISUAL STUDIO 2017\VISUAL STUDIO PROJECTS\DIRECT3D\D3D_COLOR_PYRAMID_CUBE_3D_ROTATION\SOURCE.CPP
D:\VISUAL STUDIO 2017\VISUAL STUDIO PROJECTS\DIRECT3D\D3D_COLOR_PYRAMID_CUBE_3D_ROTATION\DEBUG\VC141.PDB
D:\VISUAL STUDIO 2017\VISUAL STUDIO PROJECTS\DIRECT3D\D3D_COLOR_PYRAMID_CUBE_3D_ROTATION\DEBUG\VC141.IDB
D:\VISUAL STUDIO 2017\VISUAL STUDIO PROJECTS\DIRECT3D\D3D_COLOR_PYRAMID_CUBE_3D_ROTATION\DEBUG\SOURCE.OBJ
