﻿  Source.cpp
  DX_ColoredTriangleAndSquare.vcxproj -> E:\OpenGL_RTR\opengl\DX_ColoredTriangleAndSquare\Debug\DX_ColoredTriangleAndSquare.exe
  DX_ColoredTriangleAndSquare.vcxproj -> E:\OpenGL_RTR\opengl\DX_ColoredTriangleAndSquare\Debug\DX_ColoredTriangleAndSquare.pdb (Full PDB)
